sim/riscv_tb.vcd
$date
	Wed May 27 19:07:38 2026
$end
$version
	QuestaSim Version 10.7c
$end
$timescale
	1ns
$end

$scope module tb_top $end
$var reg 1 ! clk $end

$scope module dut $end
$var wire 1 " clk $end
$var wire 1 # rst $end
$var wire 1 $ instr [31] $end
$var wire 1 % instr [30] $end
$var wire 1 & instr [29] $end
$var wire 1 ' instr [28] $end
$var wire 1 ( instr [27] $end
$var wire 1 ) instr [26] $end
$var wire 1 * instr [25] $end
$var wire 1 + instr [24] $end
$var wire 1 , instr [23] $end
$var wire 1 - instr [22] $end
$var wire 1 . instr [21] $end
$var wire 1 / instr [20] $end
$var wire 1 0 instr [19] $end
$var wire 1 1 instr [18] $end
$var wire 1 2 instr [17] $end
$var wire 1 3 instr [16] $end
$var wire 1 4 instr [15] $end
$var wire 1 5 instr [14] $end
$var wire 1 6 instr [13] $end
$var wire 1 7 instr [12] $end
$var wire 1 8 instr [11] $end
$var wire 1 9 instr [10] $end
$var wire 1 : instr [9] $end
$var wire 1 ; instr [8] $end
$var wire 1 < instr [7] $end
$var wire 1 = instr [6] $end
$var wire 1 > instr [5] $end
$var wire 1 ? instr [4] $end
$var wire 1 @ instr [3] $end
$var wire 1 A instr [2] $end
$var wire 1 B instr [1] $end
$var wire 1 C instr [0] $end
$var reg 32 D pc [31:0] $end
$var reg 32 E alu_out [31:0] $end
$var reg 32 F mem_addr [31:0] $end
$var reg 32 G mem_wdata [31:0] $end
$var wire 1 H mem_rdata [31] $end
$var wire 1 I mem_rdata [30] $end
$var wire 1 J mem_rdata [29] $end
$var wire 1 K mem_rdata [28] $end
$var wire 1 L mem_rdata [27] $end
$var wire 1 M mem_rdata [26] $end
$var wire 1 N mem_rdata [25] $end
$var wire 1 O mem_rdata [24] $end
$var wire 1 P mem_rdata [23] $end
$var wire 1 Q mem_rdata [22] $end
$var wire 1 R mem_rdata [21] $end
$var wire 1 S mem_rdata [20] $end
$var wire 1 T mem_rdata [19] $end
$var wire 1 U mem_rdata [18] $end
$var wire 1 V mem_rdata [17] $end
$var wire 1 W mem_rdata [16] $end
$var wire 1 X mem_rdata [15] $end
$var wire 1 Y mem_rdata [14] $end
$var wire 1 Z mem_rdata [13] $end
$var wire 1 [ mem_rdata [12] $end
$var wire 1 \ mem_rdata [11] $end
$var wire 1 ] mem_rdata [10] $end
$var wire 1 ^ mem_rdata [9] $end
$var wire 1 _ mem_rdata [8] $end
$var wire 1 ` mem_rdata [7] $end
$var wire 1 a mem_rdata [6] $end
$var wire 1 b mem_rdata [5] $end
$var wire 1 c mem_rdata [4] $end
$var wire 1 d mem_rdata [3] $end
$var wire 1 e mem_rdata [2] $end
$var wire 1 f mem_rdata [1] $end
$var wire 1 g mem_rdata [0] $end
$var reg 1 h mem_we $end
$var reg 32 i alu_result [31:0] $end
$var reg 7 j opcode [6:0] $end
$var reg 5 k rd [4:0] $end
$var reg 5 l rs1 [4:0] $end
$var reg 5 m rs2 [4:0] $end
$var reg 3 n funct3 [2:0] $end
$var reg 7 o funct7 [6:0] $end
$var reg 32 p imm_i [31:0] $end
$var reg 32 q imm_s [31:0] $end
$upscope $end

$scope module mem $end
$var wire 1 r clk $end
$var wire 1 s we $end
$var wire 1 t addr [31] $end
$var wire 1 u addr [30] $end
$var wire 1 v addr [29] $end
$var wire 1 w addr [28] $end
$var wire 1 x addr [27] $end
$var wire 1 y addr [26] $end
$var wire 1 z addr [25] $end
$var wire 1 { addr [24] $end
$var wire 1 | addr [23] $end
$var wire 1 } addr [22] $end
$var wire 1 ~ addr [21] $end
$var wire 1 !! addr [20] $end
$var wire 1 "! addr [19] $end
$var wire 1 #! addr [18] $end
$var wire 1 $! addr [17] $end
$var wire 1 %! addr [16] $end
$var wire 1 &! addr [15] $end
$var wire 1 '! addr [14] $end
$var wire 1 (! addr [13] $end
$var wire 1 )! addr [12] $end
$var wire 1 *! addr [11] $end
$var wire 1 +! addr [10] $end
$var wire 1 ,! addr [9] $end
$var wire 1 -! addr [8] $end
$var wire 1 .! addr [7] $end
$var wire 1 /! addr [6] $end
$var wire 1 0! addr [5] $end
$var wire 1 1! addr [4] $end
$var wire 1 2! addr [3] $end
$var wire 1 3! addr [2] $end
$var wire 1 4! addr [1] $end
$var wire 1 5! addr [0] $end
$var wire 1 6! wdata [31] $end
$var wire 1 7! wdata [30] $end
$var wire 1 8! wdata [29] $end
$var wire 1 9! wdata [28] $end
$var wire 1 :! wdata [27] $end
$var wire 1 ;! wdata [26] $end
$var wire 1 <! wdata [25] $end
$var wire 1 =! wdata [24] $end
$var wire 1 >! wdata [23] $end
$var wire 1 ?! wdata [22] $end
$var wire 1 @! wdata [21] $end
$var wire 1 A! wdata [20] $end
$var wire 1 B! wdata [19] $end
$var wire 1 C! wdata [18] $end
$var wire 1 D! wdata [17] $end
$var wire 1 E! wdata [16] $end
$var wire 1 F! wdata [15] $end
$var wire 1 G! wdata [14] $end
$var wire 1 H! wdata [13] $end
$var wire 1 I! wdata [12] $end
$var wire 1 J! wdata [11] $end
$var wire 1 K! wdata [10] $end
$var wire 1 L! wdata [9] $end
$var wire 1 M! wdata [8] $end
$var wire 1 N! wdata [7] $end
$var wire 1 O! wdata [6] $end
$var wire 1 P! wdata [5] $end
$var wire 1 Q! wdata [4] $end
$var wire 1 R! wdata [3] $end
$var wire 1 S! wdata [2] $end
$var wire 1 T! wdata [1] $end
$var wire 1 U! wdata [0] $end
$var reg 32 V! rdata [31:0] $end
$var integer 32 W! j $end
$upscope $end
$upscope $end
$enddefinitions $end
#0
$dumpvars
0!
b0 D
b0 E
b0 F
b0 G
0h
b0 i
bx j
bx k
bx l
bx m
bx n
bx o
bx p
bx q
b0 V!
b100000000 W!
0r
0"
1#
xC
xB
xA
x@
x?
x>
x=
x<
x;
x:
x9
x8
x7
x6
x5
x4
x3
x2
x1
x0
x/
x.
x-
x,
x+
x*
x)
x(
x'
x&
x%
x$
0g
0f
0e
0d
0c
0b
0a
0`
0_
0^
0]
0\
0[
0Z
0Y
0X
0W
0V
0U
0T
0S
0R
0Q
0P
0O
0N
0M
0L
0K
0J
0I
0H
0s
05!
04!
03!
02!
01!
00!
0/!
0.!
0-!
0,!
0+!
0*!
0)!
0(!
0'!
0&!
0%!
0$!
0#!
0"!
0!!
0~
0}
0|
0{
0z
0y
0x
0w
0v
0u
0t
0U!
0T!
0S!
0R!
0Q!
0P!
0O!
0N!
0M!
0L!
0K!
0J!
0I!
0H!
0G!
0F!
0E!
0D!
0C!
0B!
0A!
0@!
0?!
0>!
0=!
0<!
0;!
0:!
09!
08!
07!
06!
$end
#5
1!
1"
1r
#10
0!
0"
0r
1C
1B
0A
0@
1?
0>
0=
1<
0;
0:
09
08
07
06
05
04
03
02
01
00
1/
0.
0-
0,
0+
0*
0)
0(
0'
0&
0%
0$
b0 o
b1 m
b1 p
b0 l
b0 n
b1 k
b1 q
b10011 j
b1 i
#15
1!
1"
1r
#20
0!
0"
0r
0<
1;
0/
1.
b10 m
b10 p
b10 k
b10 q
b0 i
b10 i
#25
1!
0#
1"
1r
b100 D
b10 E
b0 i
b10 i
#30
0!
0"
0r
1<
1/
b11 m
b11 p
b11 k
b11 q
b0 i
b11 i
#35
1!
1"
1r
b1000 D
b11 E
b0 i
b11 i
#40
0!
0"
0r
0<
0;
1:
0/
0.
1-
b100 m
b100 p
b100 k
b100 q
b0 i
b100 i
#45
1!
1"
1r
b1100 D
b100 E
b0 i
b100 i
#50
0!
0"
0r
1<
1/
b101 m
b101 p
b101 k
b101 q
b0 i
b101 i
#55
1!
1"
1r
b10000 D
b101 E
b0 i
b101 i
#60
0!
0"
0r
0<
1;
0/
1.
b110 m
b110 p
b110 k
b110 q
b0 i
b110 i
#65
1!
1"
1r
b10100 D
b110 E
b0 i
b110 i
#70
0!
0"
0r
1<
1/
b111 m
b111 p
b111 k
b111 q
b0 i
b111 i
#75
1!
1"
1r
b11000 D
b111 E
b0 i
b111 i
#80
0!
0"
0r
0<
0;
0:
19
0/
0.
0-
1,
b1000 m
b1000 p
b1000 k
b1000 q
b0 i
b1000 i
#85
1!
1"
1r
b11100 D
b1000 E
b0 i
b1000 i
#90
0!
0"
0r
1<
1/
b1001 m
b1001 p
b1001 k
b1001 q
b0 i
b1001 i
#95
1!
1"
1r
b100000 D
b1001 E
b0 i
b1001 i
#100
0!
0"
0r
0<
1;
0/
1.
b1010 m
b1010 p
b1010 k
b1010 q
b0 i
b1010 i
#105
1!
1"
1r
b100100 D
b1010 E
b0 i
b1010 i
#110
0!
0"
0r
1<
1/
b1011 m
b1011 p
b1011 k
b1011 q
b0 i
b1011 i
#115
1!
1"
1r
b101000 D
b1011 E
b0 i
b1011 i
#120
0!
0"
0r
0<
0;
1:
0/
0.
1-
b1100 m
b1100 p
b1100 k
b1100 q
b0 i
b1100 i
#125
1!
1"
1r
b101100 D
b1100 E
b0 i
b1100 i
#130
0!
0"
0r
1<
1/
b1101 m
b1101 p
b1101 k
b1101 q
b0 i
b1101 i
#135
1!
1"
1r
b110000 D
b1101 E
b0 i
b1101 i
#140
0!
0"
0r
0<
1;
0/
1.
b1110 m
b1110 p
b1110 k
b1110 q
b0 i
b1110 i
#145
1!
1"
1r
b110100 D
b1110 E
b0 i
b1110 i
#150
0!
0"
0r
1<
1/
b1111 m
b1111 p
b1111 k
b1111 q
b0 i
b1111 i
#155
1!
1"
1r
b111000 D
b1111 E
b0 i
b1111 i
#160
0!
0"
0r
0<
0;
0:
09
18
0/
0.
0-
0,
1+
b10000 m
b10000 p
b10000 k
b10000 q
b0 i
b10000 i
#165
1!
1"
1r
b111100 D
b10000 E
b0 i
b10000 i
#170
0!
0"
0r
1<
1/
b10001 m
b10001 p
b10001 k
b10001 q
b0 i
b10001 i
#175
1!
1"
1r
b1000000 D
b10001 E
b0 i
b10001 i
#180
0!
0"
0r
0<
1;
0/
1.
b10010 m
b10010 p
b10010 k
b10010 q
b0 i
b10010 i
#185
1!
1"
1r
b1000100 D
b10010 E
b0 i
b10010 i
#190
0!
0"
0r
1<
1/
b10011 m
b10011 p
b10011 k
b10011 q
b0 i
b10011 i
#195
1!
1"
1r
b1001000 D
b10011 E
b0 i
b10011 i
#200
0!
0"
0r
0<
0;
1:
0/
0.
1-
b10100 m
b10100 p
b10100 k
b10100 q
b0 i
b10100 i
#205
1!
1"
1r
b1001100 D
b10100 E
b0 i
b10100 i
#210
0!
0"
0r
1<
1/
b10101 m
b10101 p
b10101 k
b10101 q
b0 i
b10101 i
#215
1!
1"
1r
b1010000 D
b10101 E
b0 i
b10101 i
#220
0!
0"
0r
0<
1;
0/
1.
b10110 m
b10110 p
b10110 k
b10110 q
b0 i
b10110 i
#225
1!
1"
1r
b1010100 D
b10110 E
b0 i
b10110 i
#230
0!
0"
0r
1<
1/
b10111 m
b10111 p
b10111 k
b10111 q
b0 i
b10111 i
#235
1!
1"
1r
b1011000 D
b10111 E
b0 i
b10111 i
#240
0!
0"
0r
0<
0;
0:
19
0/
0.
0-
1,
b11000 m
b11000 p
b11000 k
b11000 q
b0 i
b11000 i
#245
1!
1"
1r
b1011100 D
b11000 E
b0 i
b11000 i
#250
0!
0"
0r
1<
1/
b11001 m
b11001 p
b11001 k
b11001 q
b0 i
b11001 i
#255
1!
1"
1r
b1100000 D
b11001 E
b0 i
b11001 i
#260
0!
0"
0r
0<
1;
0/
1.
b11010 m
b11010 p
b11010 k
b11010 q
b0 i
b11010 i
#265
1!
1"
1r
b1100100 D
b11010 E
b0 i
b11010 i
#270
0!
0"
0r
1<
1/
b11011 m
b11011 p
b11011 k
b11011 q
b0 i
b11011 i
#275
1!
1"
1r
b1101000 D
b11011 E
b0 i
b11011 i
#280
0!
0"
0r
0<
0;
1:
0/
0.
1-
b11100 m
b11100 p
b11100 k
b11100 q
b0 i
b11100 i
#285
1!
1"
1r
b1101100 D
b11100 E
b0 i
b11100 i
#290
0!
0"
0r
1<
1/
b11101 m
b11101 p
b11101 k
b11101 q
b0 i
b11101 i
#295
1!
1"
1r
b1110000 D
b11101 E
b0 i
b11101 i
#300
0!
0"
0r
0<
1;
0/
1.
b11110 m
b11110 p
b11110 k
b11110 q
b0 i
b11110 i
#305
1!
1"
1r
b1110100 D
b11110 E
b0 i
b11110 i
#310
0!
0"
0r
1<
1/
b11111 m
b11111 p
b11111 k
b11111 q
b0 i
b11111 i
#315
1!
1"
1r
b1111000 D
b11111 E
b0 i
b11111 i
#320
0!
0"
0r
1>
0<
0;
09
14
0/
0-
0,
0+
b10 m
b10 p
b1 l
b10100 k
b10100 q
b110011 j
b0 i
b10 i
#325
1!
1"
1r
b1111100 D
b10 E
b0 i
b10 i
#330
0!
0"
0r
0>
1<
1/
0.
1-
b101 m
b101 p
b10101 k
b10101 q
b10011 j
b0 i
b101 i
#335
1!
1"
1r
b10000000 D
b101 E
b0 i
b101 i
#340
0!
0"
0r
0?
0<
1;
04
0/
b100 m
b100 p
b0 l
b10110 k
b10110 q
b11 j
b100 F
b0 i
13!
#345
1!
1"
1r
b10000100 D
b0 E
b0 F
b100 F
#350
0!
0"
0r
1>
0;
0:
08
1/
0-
b1 m
b1 p
b0 k
b0 q
b100011 j
b0 F
1h
1s
03!
#355
1!
1"
1r
b10001000 D
#360
0!
0"
0r
1?
1:
18
17
14
0/
1.
b10 m
b10 p
b1 l
b1 n
b10100 k
b10100 q
b110011 j
0h
0s
#365
1!
1"
1r
b10001100 D
#370
0!
0"
0r
0>
1<
1/
0.
1-
b101 m
b101 p
b10101 k
b10101 q
b10011 j
b101 i
#375
1!
1"
1r
b10010000 D
b101 E
#380
0!
0"
0r
0?
0<
1;
04
0/
b100 m
b100 p
b0 l
b10110 k
b10110 q
b11 j
b100 F
b0 i
13!
#385
1!
1"
1r
b10010100 D
b0 E
#390
0!
0"
0r
1>
0;
0:
08
1/
0-
b1 m
b1 p
b0 k
b0 q
b100011 j
b0 F
1h
1s
03!
#395
1!
1"
1r
b10011000 D
#400
0!
0"
0r
1?
1:
18
07
16
14
0/
1.
b10 m
b10 p
b1 l
b10 n
b10100 k
b10100 q
b110011 j
0h
0s
#405
1!
1"
1r
b10011100 D
#410
0!
0"
0r
0>
1<
1/
0.
1-
b101 m
b101 p
b10101 k
b10101 q
b10011 j
b101 i
#415
1!
1"
1r
b10100000 D
b101 E
#420
0!
0"
0r
0?
0<
1;
04
0/
b100 m
b100 p
b0 l
b10110 k
b10110 q
b11 j
b100 F
b0 i
13!
#425
1!
1"
1r
b10100100 D
b0 E
#430
0!
0"
0r
1>
0;
0:
08
1/
0-
b1 m
b1 p
b0 k
b0 q
b100011 j
b0 F
1h
1s
03!
#435
1!
1"
1r
b10101000 D
#440
0!
0"
0r
1?
1:
18
17
14
0/
1.
b10 m
b10 p
b1 l
b11 n
b10100 k
b10100 q
b110011 j
0h
0s
#445
1!
1"
1r
b10101100 D
#450
0!
0"
0r
0>
1<
1/
0.
1-
b101 m
b101 p
b10101 k
b10101 q
b10011 j
b101 i
#455
1!
1"
1r
b10110000 D
b101 E
#460
0!
0"
0r
0?
0<
1;
04
0/
b100 m
b100 p
b0 l
b10110 k
b10110 q
b11 j
b100 F
b0 i
13!
#465
1!
1"
1r
b10110100 D
b0 E
#470
0!
0"
0r
1>
0;
0:
08
1/
0-
b1 m
b1 p
b0 k
b0 q
b100011 j
b0 F
1h
1s
03!
#475
1!
1"
1r
b10111000 D
#480
0!
0"
0r
1?
1:
18
07
06
15
14
0/
1.
b10 m
b10 p
b1 l
b100 n
b10100 k
b10100 q
b110011 j
0h
0s
#485
1!
1"
1r
b10111100 D
#490
0!
0"
0r
0>
1<
1/
0.
1-
b101 m
b101 p
b10101 k
b10101 q
b10011 j
b101 i
#495
1!
1"
1r
b11000000 D
b101 E
#500
0!
0"
0r
0?
0<
1;
04
0/
b100 m
b100 p
b0 l
b10110 k
b10110 q
b11 j
b100 F
b0 i
13!
#505
1!
1"
1r
b11000100 D
b0 E
#510
0!
0"
0r
1>
0;
0:
08
1/
0-
b1 m
b1 p
b0 k
b0 q
b100011 j
b0 F
1h
1s
03!
#515
1!
1"
1r
b11001000 D
#520
0!
0"
0r
1?
1:
18
17
14
0/
1.
b10 m
b10 p
b1 l
b101 n
b10100 k
b10100 q
b110011 j
0h
0s
#525
1!
1"
1r
b11001100 D
#530
0!
0"
0r
0>
1<
1/
0.
1-
b101 m
b101 p
b10101 k
b10101 q
b10011 j
b101 i
#535
1!
1"
1r
b11010000 D
b101 E
#540
0!
0"
0r
0?
0<
1;
04
0/
b100 m
b100 p
b0 l
b10110 k
b10110 q
b11 j
b100 F
b0 i
13!
#545
1!
1"
1r
b11010100 D
b0 E
#550
0!
0"
0r
1>
0;
0:
08
1/
0-
b1 m
b1 p
b0 k
b0 q
b100011 j
b0 F
1h
1s
03!
#555
1!
1"
1r
b11011000 D
#560
0!
0"
0r
1?
1:
18
07
16
14
0/
1.
b10 m
b10 p
b1 l
b110 n
b10100 k
b10100 q
b110011 j
0h
b10 i
0s
#565
1!
1"
1r
b11011100 D
b10 E
b0 i
b10 i
#570
0!
0"
0r
0>
1<
1/
0.
1-
b101 m
b101 p
b10101 k
b10101 q
b10011 j
b0 i
b101 i
#575
1!
1"
1r
b11100000 D
b101 E
#580
0!
0"
0r
0?
0<
1;
04
0/
b100 m
b100 p
b0 l
b10110 k
b10110 q
b11 j
b100 F
b0 i
13!
#585
1!
1"
1r
b11100100 D
b0 E
#590
0!
0"
0r
1>
0;
0:
08
1/
0-
b1 m
b1 p
b0 k
b0 q
b100011 j
b0 F
1h
1s
03!
#595
1!
1"
1r
b11101000 D
#600
0!
0"
0r
1?
1:
18
17
14
0/
1.
b10 m
b10 p
b1 l
b111 n
b10100 k
b10100 q
b110011 j
0h
0s
#605
1!
1"
1r
b11101100 D
#610
0!
0"
0r
0>
1<
1/
0.
1-
b101 m
b101 p
b10101 k
b10101 q
b10011 j
b101 i
#615
1!
1"
1r
b11110000 D
b101 E
#620
0!
0"
0r
0?
0<
1;
04
0/
b100 m
b100 p
b0 l
b10110 k
b10110 q
b11 j
b100 F
b0 i
13!
#625
1!
1"
1r
b11110100 D
b0 E
#630
0!
0"
0r
1>
0;
0:
08
1/
0-
b1 m
b1 p
b0 k
b0 q
b100011 j
b0 F
1h
1s
03!
#635
1!
1"
1r
b11111000 D
#640
0!
0"
0r
1?
0>
1;
1:
19
18
07
06
05
14
0/
b0 m
b0 p
b1 l
b0 n
b11110 k
b11110 q
b10011 j
0h
0s
#645
1!
1"
1r
b11111100 D
#650
0!
0"
0r
04
13
1/
1.
1-
1,
b1111 m
b1111 p
b10 l
b10001 i
#655
1!
1"
1r
b100000000 D
b10001 E
b0 i
b10001 i
#660
0!
0"
0r
14
0/
0.
0,
1+
1*
1)
1(
1'
b1111 o
b111111110 q
b10100 m
b111110100 p
b11 l
b0 i
b111110111 i
#665
1!
1"
1r
b100000100 D
b111110111 E
b0 i
b111110111 i
#670
0!
0"
0r
04
03
12
1/
1.
1,
1&
1%
1$
b1111111 o
b11111111111111111111111111111110 q
b11111 m
b11111111111111111111111111111111 p
b100 l
b0 i
b11 i
#675
1!
1"
1r
b100001000 D
b11 E
b0 i
b11 i
#680
0!
0"
0r
14
0/
0.
0-
0,
0+
0*
0)
0(
b1111000 o
b11111111111111111111111100011110 q
b0 m
b11111111111111111111111100000000 p
b101 l
b0 i
b11111111111111111111111100000101 i
#685
1!
1"
1r
b100001100 D
b11111111111111111111111100000101 E
b0 i
b11111111111111111111111100000101 i
#690
0!
0"
0r
04
13
0'
0&
0%
b1000000 o
b11111111111111111111100000000000 p
b11111111111111111111100000011110 q
b110 l
b0 i
b11111111111111111111100000000110 i
#695
1!
1"
1r
b100010000 D
b11111111111111111111100000000110 E
b0 i
b11111111111111111111100000000110 i
#700
0!
0"
0r
1>
1<
0;
0:
09
08
03
02
0$
b0 o
b0 p
b0 l
b1 k
b1 q
b110011 j
b0 i
#705
1!
1"
1r
b100010100 D
b0 E
#710
0!
0"
0r
0<
1;
1/
b1 m
b1 p
b10 k
b10 q
#715
1!
1"
1r
b100011000 D
#720
0!
0"
0r
1<
0/
1.
b10 m
b10 p
b11 k
b11 q
#725
1!
1"
1r
b100011100 D
#730
0!
0"
0r
0<
0;
1:
1/
b11 m
b11 p
b100 k
b100 q
#735
1!
1"
1r
b100100000 D
#740
0!
0"
0r
1<
0/
0.
1-
b100 m
b100 p
b101 k
b101 q
#745
1!
1"
1r
b100100100 D
#750
0!
0"
0r
0<
1;
1/
b101 m
b101 p
b110 k
b110 q
#755
1!
1"
1r
b100101000 D
#760
0!
0"
0r
1<
0/
1.
b110 m
b110 p
b111 k
b111 q
#765
1!
1"
1r
b100101100 D
#770
0!
0"
0r
0<
0;
0:
19
1/
b111 m
b111 p
b1000 k
b1000 q
#775
1!
1"
1r
b100110000 D
#780
0!
0"
0r
1<
0/
0.
0-
1,
b1000 m
b1000 p
b1001 k
b1001 q
#785
1!
1"
1r
b100110100 D
#790
0!
0"
0r
0<
1;
1/
b1001 m
b1001 p
b1010 k
b1010 q
#795
1!
1"
1r
b100111000 D
#800
0!
0"
0r
1<
0/
1.
b1010 m
b1010 p
b1011 k
b1011 q
#805
1!
1"
1r
b100111100 D
#810
0!
0"
0r
0<
0;
1:
1/
b1011 m
b1011 p
b1100 k
b1100 q
#815
1!
1"
1r
b101000000 D
#820
0!
0"
0r
1<
0/
0.
1-
b1100 m
b1100 p
b1101 k
b1101 q
#825
1!
1"
1r
b101000100 D
#830
0!
0"
0r
0<
1;
1/
b1101 m
b1101 p
b1110 k
b1110 q
#835
1!
1"
1r
b101001000 D
#840
0!
0"
0r
1<
0/
1.
b1110 m
b1110 p
b1111 k
b1111 q
#845
1!
1"
1r
b101001100 D
#850
0!
0"
0r
0<
0;
0:
09
18
1/
b1111 m
b1111 p
b10000 k
b10000 q
#855
1!
1"
1r
b101010000 D
#860
0!
0"
0r
1<
0/
0.
0-
0,
1+
b10000 m
b10000 p
b10001 k
b10001 q
#865
1!
1"
1r
b101010100 D
#870
0!
0"
0r
0<
1;
1/
b10001 m
b10001 p
b10010 k
b10010 q
#875
1!
1"
1r
b101011000 D
#880
0!
0"
0r
1<
0/
1.
b10010 m
b10010 p
b10011 k
b10011 q
#885
1!
1"
1r
b101011100 D
#890
0!
0"
0r
0<
0;
1:
1/
b10011 m
b10011 p
b10100 k
b10100 q
#895
1!
1"
1r
b101100000 D
#900
0!
0"
0r
1<
0/
0.
1-
b10100 m
b10100 p
b10101 k
b10101 q
#905
1!
1"
1r
b101100100 D
#910
0!
0"
0r
0<
1;
1/
b10101 m
b10101 p
b10110 k
b10110 q
#915
1!
1"
1r
b101101000 D
#920
0!
0"
0r
1<
0/
1.
b10110 m
b10110 p
b10111 k
b10111 q
#925
1!
1"
1r
b101101100 D
#930
0!
0"
0r
0<
0;
0:
19
1/
b10111 m
b10111 p
b11000 k
b11000 q
#935
1!
1"
1r
b101110000 D
#940
0!
0"
0r
1<
0/
0.
0-
1,
b11000 m
b11000 p
b11001 k
b11001 q
#945
1!
1"
1r
b101110100 D
#950
0!
0"
0r
0<
1;
1/
b11001 m
b11001 p
b11010 k
b11010 q
#955
1!
1"
1r
b101111000 D
#960
0!
0"
0r
1<
0/
1.
b11010 m
b11010 p
b11011 k
b11011 q
#965
1!
1"
1r
b101111100 D
#970
0!
0"
0r
0<
0;
1:
1/
b11011 m
b11011 p
b11100 k
b11100 q
#975
1!
1"
1r
b110000000 D
#980
0!
0"
0r
1<
0/
0.
1-
b11100 m
b11100 p
b11101 k
b11101 q
#985
1!
1"
1r
b110000100 D
#990
0!
0"
0r
0<
1;
1/
b11101 m
b11101 p
b11110 k
b11110 q
#995
1!
1"
1r
b110001000 D
#1000
0!
0"
0r
1<
0/
1.
b11110 m
b11110 p
b11111 k
b11111 q
#1005
1!
1"
1r
b110001100 D
#1010
0!
0"
0r
0;
0:
09
08
1/
b11111 m
b11111 p
b1 k
b1 q
#1015
1!
1"
1r
b110010000 D
#1020
0!
0"
0r
0<
1;
14
0/
0.
0-
0,
0+
b0 m
b0 p
b1 l
b10 k
b10 q
#1025
1!
1"
1r
b110010100 D
#1030
0!
0"
0r
1<
1/
b1 m
b1 p
b11 k
b11 q
#1035
1!
1"
1r
b110011000 D
#1040
0!
0"
0r
0<
0;
1:
0/
1.
b10 m
b10 p
b100 k
b100 q
#1045
1!
1"
1r
b110011100 D
#1050
0!
0"
0r
1<
1/
b11 m
b11 p
b101 k
b101 q
#1055
1!
1"
1r
b110100000 D
#1060
0!
0"
0r
0<
1;
0/
0.
1-
b100 m
b100 p
b110 k
b110 q
#1065
1!
1"
1r
b110100100 D
#1070
0!
0"
0r
1<
1/
b101 m
b101 p
b111 k
b111 q
#1075
1!
1"
1r
b110101000 D
#1080
0!
0"
0r
0<
0;
0:
19
0/
1.
b110 m
b110 p
b1000 k
b1000 q
#1085
1!
1"
1r
b110101100 D
#1090
0!
0"
0r
1<
1/
b111 m
b111 p
b1001 k
b1001 q
#1095
1!
1"
1r
b110110000 D
#1100
0!
0"
0r
0<
1;
0/
0.
0-
1,
b1000 m
b1000 p
b1010 k
b1010 q
#1105
1!
1"
1r
b110110100 D
#1110
0!
0"
0r
1<
1/
b1001 m
b1001 p
b1011 k
b1011 q
#1115
1!
1"
1r
b110111000 D
#1120
0!
0"
0r
0<
0;
1:
0/
1.
b1010 m
b1010 p
b1100 k
b1100 q
#1125
1!
1"
1r
b110111100 D
#1130
0!
0"
0r
1<
1/
b1011 m
b1011 p
b1101 k
b1101 q
#1135
1!
1"
1r
b111000000 D
#1140
0!
0"
0r
0<
1;
0/
0.
1-
b1100 m
b1100 p
b1110 k
b1110 q
#1145
1!
1"
1r
b111000100 D
#1150
0!
0"
0r
1<
1/
b1101 m
b1101 p
b1111 k
b1111 q
#1155
1!
1"
1r
b111001000 D
#1160
0!
0"
0r
0<
0;
0:
09
18
0/
1.
b1110 m
b1110 p
b10000 k
b10000 q
#1165
1!
1"
1r
b111001100 D
#1170
0!
0"
0r
1<
1/
b1111 m
b1111 p
b10001 k
b10001 q
#1175
1!
1"
1r
b111010000 D
#1180
0!
0"
0r
0<
1;
0/
0.
0-
0,
1+
b10000 m
b10000 p
b10010 k
b10010 q
#1185
1!
1"
1r
b111010100 D
#1190
0!
0"
0r
1<
1/
b10001 m
b10001 p
b10011 k
b10011 q
#1195
1!
1"
1r
b111011000 D
#1200
0!
0"
0r
0<
0;
1:
0/
1.
b10010 m
b10010 p
b10100 k
b10100 q
#1205
1!
1"
1r
b111011100 D
#1210
0!
0"
0r
1<
1/
b10011 m
b10011 p
b10101 k
b10101 q
#1215
1!
1"
1r
b111100000 D
#1220
0!
0"
0r
0<
1;
0/
0.
1-
b10100 m
b10100 p
b10110 k
b10110 q
#1225
1!
1"
1r
b111100100 D
#1230
0!
0"
0r
1<
1/
b10101 m
b10101 p
b10111 k
b10111 q
#1235
1!
1"
1r
b111101000 D
#1240
0!
0"
0r
0<
0;
0:
19
0/
1.
b10110 m
b10110 p
b11000 k
b11000 q
#1245
1!
1"
1r
b111101100 D
#1250
0!
0"
0r
1<
1/
b10111 m
b10111 p
b11001 k
b11001 q
#1255
1!
1"
1r
b111110000 D
#1260
0!
0"
0r
0<
1;
0/
0.
0-
1,
b11000 m
b11000 p
b11010 k
b11010 q
#1265
1!
1"
1r
b111110100 D
#1270
0!
0"
0r
1<
1/
b11001 m
b11001 p
b11011 k
b11011 q
#1275
1!
1"
1r
b111111000 D
#1280
0!
0"
0r
0<
0;
1:
0/
1.
b11010 m
b11010 p
b11100 k
b11100 q
#1285
1!
1"
1r
b111111100 D
#1290
0!
0"
0r
1<
1/
b11011 m
b11011 p
b11101 k
b11101 q
#1295
1!
1"
1r
b1000000000 D
#1300
0!
0"
0r
0<
1;
0/
0.
1-
b11100 m
b11100 p
b11110 k
b11110 q
#1305
1!
1"
1r
b1000000100 D
#1310
0!
0"
0r
1<
1/
b11101 m
b11101 p
b11111 k
b11111 q
#1315
1!
1"
1r
b1000001000 D
#1320
0!
0"
0r
0;
0:
09
08
0/
1.
b11110 m
b11110 p
b1 k
b1 q
#1325
1!
1"
1r
b1000001100 D
#1330
0!
0"
0r
0<
1;
1/
b11111 m
b11111 p
b10 k
b10 q
#1335
1!
1"
1r
b1000010000 D
#1340
0!
0"
0r
1<
04
13
0/
0.
0-
0,
0+
b0 m
b0 p
b10 l
b11 k
b11 q
#1345
1!
1"
1r
b1000010100 D
#1350
0!
0"
0r
0<
0;
1:
1/
b1 m
b1 p
b100 k
b100 q
#1355
1!
1"
1r
b1000011000 D
#1360
0!
0"
0r
1<
0/
1.
b10 m
b10 p
b101 k
b101 q
#1365
1!
1"
1r
b1000011100 D
#1370
0!
0"
0r
0<
1;
1/
b11 m
b11 p
b110 k
b110 q
#1375
1!
1"
1r
b1000100000 D
#1380
0!
0"
0r
1<
0/
0.
1-
b100 m
b100 p
b111 k
b111 q
#1385
1!
1"
1r
b1000100100 D
#1390
0!
0"
0r
0<
0;
0:
19
1/
b101 m
b101 p
b1000 k
b1000 q
#1395
1!
1"
1r
b1000101000 D
#1400
0!
0"
0r
1<
0/
1.
b110 m
b110 p
b1001 k
b1001 q
#1405
1!
1"
1r
b1000101100 D
#1410
0!
0"
0r
0<
1;
1/
b111 m
b111 p
b1010 k
b1010 q
#1415
1!
1"
1r
b1000110000 D
#1420
0!
0"
0r
1<
0/
0.
0-
1,
b1000 m
b1000 p
b1011 k
b1011 q
#1425
1!
1"
1r
b1000110100 D
#1430
0!
0"
0r
0<
0;
1:
1/
b1001 m
b1001 p
b1100 k
b1100 q
#1435
1!
1"
1r
b1000111000 D
#1440
0!
0"
0r
1<
0/
1.
b1010 m
b1010 p
b1101 k
b1101 q
#1445
1!
1"
1r
b1000111100 D
